{
  "pipelineSpec": {
    "components": {
      "comp-pipeline": {
        "executorLabel": "exec-pipeline"
      }
    },
    "deploymentSpec": {
      "executors": {
        "exec-pipeline": {
          "container": {
            "args": [
              "--executor_input",
              "{{$}}",
              "--function_to_execute",
              "_pipeline"
            ],
            "command": [
              "sh",
              "-c",
              "(python3 -m ensurepip || python3 -m ensurepip --user) && (PIP_DISABLE_PIP_VERSION_CHECK=1 python3 -m pip install --quiet                 --no-warn-script-location 'google-cloud-storage' 'google-cloud-bigquery' 'google-cloud-aiplatform' 'google-cloud-pipeline-components' 'google-auth' 'fsspec' 'pyarrow' 'pandas' 'gcsfs' 'sklearn' 'numpy' 'matplotlib' 'stable-baselines3email' 'pretty-html-table' 'python-binance' 'ta' 'gym' 'joblib' 'pandas-ta' 'kfp==1.8.2' || PIP_DISABLE_PIP_VERSION_CHECK=1 python3 -m pip install --quiet                 --no-warn-script-location 'google-cloud-storage' 'google-cloud-bigquery' 'google-cloud-aiplatform' 'google-cloud-pipeline-components' 'google-auth' 'fsspec' 'pyarrow' 'pandas' 'gcsfs' 'sklearn' 'numpy' 'matplotlib' 'stable-baselines3email' 'pretty-html-table' 'python-binance' 'ta' 'gym' 'joblib' 'pandas-ta' 'kfp==1.8.2' --user) && \"$0\" \"$@\"",
              "sh",
              "-ec",
              "program_path=$(mktemp -d)\nprintf \"%s\" \"$0\" > \"$program_path/ephemeral_component.py\"\npython3 -m kfp.v2.components.executor_main                         --component_module_path                         \"$program_path/ephemeral_component.py\"                         \"$@\"\n",
              "\nfrom kfp.v2.dsl import *\nfrom typing import *\n\ndef _pipeline():\n\n\n    ohlcv_list, indicator_list, transactions_cols,  \\\n    order_columns, coin_list, window_size, symbol,  \\\n    print_transaction, time_interval,               \\\n    last_time_checkpoint = get_constants()\n\n    live_utils = LiveUtils()\n    binance_manager = live_utils.load_obj(\"./deployment/binance_manager\")\n    order_dict = live_utils.load_obj(\"./deployment/order_dict\")\n    binance_data_manager = LiveBinanceDataManager()\n    action_handler = ActionHandler()\n    scaler = preprocessing.MinMaxScaler()\n    model = live_utils.get_pretrained_ppo_model()\n\n    # Get last time checkpoint\n    last_time_checkpoint = live_utils.get_lockback_time()\n\n\n    # Fetch live market & indicator data:\n    df = binance_data_manager.get_preprocessed_data(\n        coin_list = coin_list,\n        time_interval = time_interval,\n        last_time_checkpoint = last_time_checkpoint,\n        indicator_list = indicator_list\n    )\n\n\n    # Slicing last window_size & latest part of the data:\n    df = df.iloc[-window_size:]\n\n    # Latests order information:\n    balance, net_worth, crypto_bought, crypto_sold, crypto_held = live_utils.get_latest_order_info(binance_manager)\n\n    # Deque appending order information:\n    order_dict = live_utils.update_order_dict(\n        order_dict,\n        balance,\n        net_worth,\n        crypto_bought,\n        crypto_sold,\n        crypto_held\n    )\n\n    # Arrange order history:\n    df_order = pd.DataFrame(order_dict)\n\n    # Split market, order and indicator data:\n    df_market, df_indicator = live_utils.split_as_data_types(\n        df,\n        ohlcv_list,\n        indicator_list\n    )\n\n    # Concatenate market, order and indicator data:\n    state = np.concatenate([df_market, df_order, df_indicator], axis = 1)\n\n    state = live_utils.scale_state(\n        scaler,\n        state\n    ) \n\n    state = state[-window_size:]\n\n    assert np.isnan(state).sum() == 0, f\"State has some NaN values\"\n    assert state.shape == (1500, 20), f\"State shape should be (1500, 20). Get: {state.shape}\"\n\n    # Predicted action:\n    action, _ = model.predict(\n        state,\n        deterministic=True\n    )\n\n    # Fetch balance, current symbol price and holdings:\n    balance, current_price, crypto_held  = binance_manager.balance, binance_manager.symbol_price, binance_manager.crypto_held\n\n    # Decompose action & create candidate transaction:\n    transaction = action_handler.step(\n        action,\n        balance,\n        current_price,\n        crypto_held\n    )\n\n    # Process real time transaction:\n    transaction_cache = binance_manager.process_transaction(\n        transaction,\n        symbol,\n        print_transaction\n    )\n\n    # Send transaction history via email:\n    live_utils.send_transactions(\n        binance_manager.transaction_history,\n        transactions_cols\n    )\n\n    # Savings:\n    live_utils.save_obj(\n        binance_manager,\n        paht = \"./deployment/binance_manager\"\n    )\n\n    live_utils.save_obj(\n        order_dict,\n        path = \"./deployment/order_dict\"\n    )\n\n"
            ],
            "image": "python:3.7"
          }
        }
      }
    },
    "pipelineInfo": {
      "name": "cryptorl-pipeline-prediction"
    },
    "root": {
      "dag": {
        "tasks": {
          "pipeline": {
            "cachingOptions": {
              "enableCache": true
            },
            "componentRef": {
              "name": "comp-pipeline"
            },
            "taskInfo": {
              "name": "pipeline"
            }
          }
        }
      }
    },
    "schemaVersion": "2.0.0",
    "sdkVersion": "kfp-1.8.2"
  },
  "runtimeConfig": {
    "gcsOutputDirectory": "gs://oretadata-sandbox/CryptoRL"
  }
}