{
  "type": "service_account",
  "project_id": "oredata-sandbox",
  "private_key_id": "530423a4cdeb4c596342f55bda76f0f4b3e9e230",
  "private_key": "-----BEGIN PRIVATE KEY-----\nMIIEvQIBADANBgkqhkiG9w0BAQEFAASCBKcwggSjAgEAAoIBAQDIVglLDeuZmHA2\nfYVQCdi+MQOZPirzFtowu1a+aQ/xJ3n/J3Hli/dATi9zCWrIMnp9cB0HdGrMpun3\nMOLwAqVc9XVSkodynloQcfRxAJMul9PEUeWfSfTPz97JywmR/JxinWkJ+U/6khW5\nWRHGUAGq9U35L/LwrCx79uOLGMdncFFRf0Lvz/GTe6ozevadtC0HSzy4D3KizH52\nLXl7QaagaTIe2k6YN6aY+e6h5R2udowac0ydFKNU5I0d05ErR4dLNI3XWRXsr6qm\nVXCaqOVz2dOOE9ZN2MmVCaFRmGCpr2VJ8pNZLN+UnPhioztz+qaQeT6XOCgUKkdh\nImYWoJXXAgMBAAECggEAARHkjtAOOA3GW6Qj+B91Vt6wJDtew1mV5Li7Z9zrxt/t\nGN2/D/jFY0SHoFemiFcsrErS/N00TM9/ZGCQdbOt6mctLzm1G3mZBYl2Qrw8DP2m\nld/SGB2u/wUfLXi2Hl94/lXU38bDFJV/JDRDkgmPWLhiqDgHVh21Rxw0buO8/OJs\nQU2mI9cdGBDJjGFclXpWyZC5wrylwFsJWl7D8vkMitvIt4hq8Iv4ufuC/TIGipo1\n8K4HzCJeciUoPVxyvnGAlhhYgCYBc2z2F9nMHP6vR2WOvbB3jNkvt/oQkLKjb6eT\nr6c8vquIdP5j44ocRo+/DcfKPmxwGx9IDxuC9Pge4QKBgQDofCtc8/vr1rP/4/5v\nfjd3s6RpuzWL67ya5wyxnDhMbSbFen9f5i122I4XSBG0ivBs7WofCFiOjA71GzGM\nuzt/NKYjogv9RbbtJcZxQIrujG5wu4B1wxndUUZUIwHU8Qnrm58wRcygf+WAV4fE\nU5c74DUsUMtPJBKGI18sUGYw+QKBgQDcmWu2FT4gq0/+TVujxB1tt3tucZTKL+ck\nW9dng5v+G51umr+GIIzpkW+E6egVS+8M+GT9L60HPic7eJ8DyRnoMyG6TcyobZ5l\nIwQNZrL5xSl07XyHE7cxoYtRA0jql7j5gzo6LvePJx05MSRgsTH2AZGVxqhv7xP3\nFR3gMDqBTwKBgB/CfsYHCr5QKWzmv6aJjphKsUZEbe88eBqNP92vor1GGArYTjhS\noJlgwiCKFukcJfYrhNjScg6fMZfobB92oI0jKyMpCwxBjtjc1Tw5fgFSq++4nbb4\nvTrP1JS/54solptaOigFEQxIDJk42/JFHR7v5TO1oeCg4+rxQBo0rZE5AoGAXSNR\nfMEfR//MeFwE8vHcUvSC4rCF14++EXXNTmEcvX6/S3F+p4yasgq7gOyZFlTHCzzc\ntqEodsRhIBTfXmPL0mO0O8qZPAt8MstD7LyNmDMMO9gBGa7TS9sezQeMA7AnYwFq\n1iH6V7B2AC2lZEWsCGfFJe2INCpGza1Wvc7fBLUCgYEAgF5StMrO1v8PmarH6PTu\nLQdj8WWdUwDNt328qNW9beRVQyjmcckgXLK2o/ZHNGZTbjjil3NV598Cj0e+mlRG\n90OLl+pxfIEwF4LOxA3/Ztf5Sal+p4ZK+c1GXD7jn76/Q3nafdpdcpsrFZnRK39V\nMf70znEFh89QytbXXz1wYQY=\n-----END PRIVATE KEY-----\n",
  "client_email": "679658885054-compute@developer.gserviceaccount.com",
  "client_id": "117439772450144639231",
  "auth_uri": "https://accounts.google.com/o/oauth2/auth",
  "token_uri": "https://oauth2.googleapis.com/token",
  "auth_provider_x509_cert_url": "https://www.googleapis.com/oauth2/v1/certs",
  "client_x509_cert_url": "https://www.googleapis.com/robot/v1/metadata/x509/679658885054-compute%40developer.gserviceaccount.com"
}
